[
    {
        "imports": [
            "Arthur", 
            "Meliagrance"
        ], 
        "name": "Guenever"
    }, 
    {
        "imports": [
            "Elaine", 
            "Meliagrance", 
            "Lancelot", 
            "Arthur", 
            "Gawaine"
        ], 
        "name": "Queen"
    }, 
    {
        "imports": [
            "Meliagrance", 
            "Pelles", 
            "Arthur", 
            "Queen"
        ], 
        "name": "Lancelot"
    }, 
    {
        "imports": [
            "Lancelot", 
            "Queen", 
            "Guenever"
        ], 
        "name": "Meliagrance"
    }, 
    {
        "imports": [
            "Lionel", 
            "Guenever", 
            "Lancelot", 
            "Queen"
        ], 
        "name": "Arthur"
    }, 
    {
        "imports": [
            "Queen", 
            "Pelles"
        ], 
        "name": "Elaine"
    }, 
    {
        "imports": [
            "Elaine", 
            "Lancelot"
        ], 
        "name": "Pelles"
    }, 
    {
        "imports": [
            "Queen"
        ], 
        "name": "Gawaine"
    }, 
    {
        "imports": [
            "Arthur"
        ], 
        "name": "Lionel"
    }
]