[
    {
        "imports": [
            "Toirdealbhach", 
            "Gawaine", 
            "Agravaine"
        ], 
        "name": "Gareth"
    }, 
    {
        "imports": [
            "Gawaine", 
            "Agravaine"
        ], 
        "name": "Gaheris"
    }, 
    {
        "imports": [
            "Palomides", 
            "Pellinore", 
            "Arthur", 
            "Toirdealbhach"
        ], 
        "name": "Grummore"
    }, 
    {
        "imports": [
            "Pellinore", 
            "Palomides", 
            "Merlyn", 
            "Grummore", 
            "Kay"
        ], 
        "name": "Arthur"
    }, 
    {
        "imports": [
            "Kay", 
            "Arthur"
        ], 
        "name": "Merlyn"
    }, 
    {
        "imports": [
            "Arthur", 
            "Grummore"
        ], 
        "name": "Pellinore"
    }, 
    {
        "imports": [
            "Gawaine", 
            "Grummore", 
            "Gareth"
        ], 
        "name": "Toirdealbhach"
    }, 
    {
        "imports": [
            "Arthur", 
            "Grummore"
        ], 
        "name": "Palomides"
    }, 
    {
        "imports": [
            "Merlyn", 
            "Arthur"
        ], 
        "name": "Kay"
    }, 
    {
        "imports": [
            "Toirdealbhach", 
            "Gareth", 
            "Gaheris", 
            "Agravaine"
        ], 
        "name": "Gawaine"
    }, 
    {
        "imports": [
            "Gareth", 
            "Gaheris", 
            "Gawaine"
        ], 
        "name": "Agravaine"
    }
]