{
    "data": [
        {
            "paragraph": "But the curious thing was that under the king-post of keeping faith with himself and with others, he had a contradictory nature which was far from holy. His Word was valuable to him not only because he was good, but also because he was bad. It is the bad people who need to have principles to restrain them. For one thing, he liked to hurt people. It was for the strange reason that he was cruel, that the poor fellow never killed a man who asked for mercy, or committed a cruel action which he could have prevented. One reason why he fell in love with Guenever was because the first thing he had done was to hurt her. He might never have noticed her as a person, if he had not seen the pain in her eyes.", 
            "type": "passage", 
            "score": 0.6899205794608543
        }, 
        {
            "paragraph": "1 In the castle of Benwick, the French boy was looking at his face in the polished surface of a kettle-hat. It flashed in the sunlight with the stubborn gleam of metal. It was practically the same as the steel helmet which soldiers still wear, and it did not make a good mirror, but it was the best he could get. He turned the hat in various directions, hoping to get an average idea of his face from the different distortions which the bulges made. He was trying to find out what he was, and he was afraid of what he would find.", 
            "type": "passage", 
            "score": 0.4720033322130614
        }, 
        {
            "paragraph": "12 Lancelot stayed at the castle of Corbin for days. Its haunted rooms were up to expectation, and there was nothing else to do. He felt such feelings in his breast because of Guenever --the frightful pang of hopeless love --that he was drained of effort. He could not summon the energy to go elsewhere. At the beginning of his love for her there had been restlessness, so that he had felt that if only he kept moving and doing new things every moment there might be a hope of escape. Now his power to be busy was gone. He felt that he might as well be in one place as another, if he was only waiting to see whether his heart would break or not. He was too simple to see that if the finest knight in the world rescued you out of a kettle of boiling water, with no clothes on, you would be likely to fall in love with him --if you were only eighteen.", 
            "type": "passage", 
            "score": 0.27403111527977775
        }, 
        {
            "paragraph": "Now that we are together! And in her tone of voice he had read a picture of twenty years' desertion, realizing for the first time that during all that period she had been following his career of chivalry like a schoolchild doting on the batsman Hobbs. The poor bird had been picturing all the fights --almost certainly picturing them quite wrong: nourishing a starved heart on second-hand accounts in secret: wondering whose token was in the place of honour today. Perhaps she had been telling herself tor twenty years that some day the great champion would fight under a favour of her own --one of those ridiculous ambitions with which the wretched soul consoles itself, tor lack of decent fare.", 
            "type": "passage", 
            "score": 0.19269804298307625
        }, 
        {
            "paragraph": "In the morning he woke suddenly in a strange room. It was quite dark, with tapestry over the windows, and he had no headache because his constitution was good. He jumped out of bed and went to the window, to draw the curtain. He was fully aware, in the suddenness of a second, of all that bad happened on the previous night --aware of the butler and of the drink and of the love-potion which had perhaps been put in it, of the message from Guenever, and of the dark, solid, cool-fired body in the bed which he had just got out of. He drew the curtain and leaned his forehead against the cold stone of the mullion. He was miserable.", 
            "type": "passage", 
            "score": 0.17880419058078842
        }, 
        {
            "paragraph": "It was about the Queen, who had gone a-Maying --for it was the first of May. She had started early, as the custom was, intending to be back by ten o'clock, with all the dewy primroses and violets and hawthorn blooms and green-budding branches which it was proper to gather on such a morning. She had left her bodyguard behind --the Queen's knights, who all bore the vergescu as their badge of office --and had taken with her only ten knights in civilian clothes. They had been dressed in green, to celebrate the festival of spring. Agravaine was among them --he had attached himself to Guenever lately, to spy on her --and Lancelot had been left out on purpose.", 
            "type": "passage", 
            "score": 0.05893618985108915
        }, 
        {
            "paragraph": "Lancelot came last. There was a stir among the torch-bearers near the door, and a sound went round the hall. The clatter of knives and plates and tankards, the noise of friendly shouting which had sounded a moment before like a meeting of seabirds on St. Kilda, the yells for more mutton or a pint of mead were stilled --and the blurs of white faces turned toward the door. There was Lancelot, no longer in armour but dressed in a magnificent velvet robe, scalloped and diapered. He hesitated in the dark frame, hideous and friendly, wondering why the silence was --and the lights showed him up. Then the faces turned back again, the seabird meeting started once more, and Lancelot came forward to kiss the King's hand.", 
            "type": "passage", 
            "score": 0.016085346843335933
        }, 
        {
            "paragraph": "Lancelot halted, and so did Uncle Dap. The black knight walked his horse into the shallow water, and drew rein in front of them. He raised his lance in a gesture of salute, then pointed with it to a place behind Lancelot's back. Either he was telling him to go home again, or else he was pointing out a good position from which they could start their charges. Whichever the case might be, Lancelot saluted with his gauntlet and turned round to go to the place. He took one of his spears from Uncle Dap, pulled his tilting helm round in front of him --it had been hanging behind on a chain --and lifted the steel turret into position on his head. He laced it on. Now he too had become a man without an expression.", 
            "type": "passage", 
            "score": 0
        }, 
        {
            "paragraph": "They caught their horses and jogged off toward the palace side by side, forgetting Uncle Dap. They had so much to say to each other that they both talked all the time. Lancelot gave imaginary messages from King Ban or from Queen Elaine, and Arthur talked about how Gawaine had killed a lady. He told how King Pellinore had got so courageous since bis marriage that he had killed King Lot of Orkney by mistake in a tournament, and how the Round Table was going as well as could be expected, but very slowly, and how, now that Lancelot had arrived, everything would come right before they knew where they were.", 
            "type": "passage", 
            "score": 0
        }, 
        {
            "paragraph": "There is no need to go into the whole story of the Roman campaign, although it lasted several years. It was the usual sort of war, with a great deal of shoving and shouting on both sides, great strokes smitten, many men overthrown, and great valiances, prowesses, and feats of arms shown every day. It was Bedegraine enlarged --with the same refusal on Arthur's part to regard it as a sporting or commercial enterprise --although it did have its characteristic touches. Redheaded Gawaine lost his temper when sent on an embassy and killed a man in the middle of the negotiations. Sir Lancelot led a terrific battle in which his men were outnumbered by three to one. He slew the King Lyly and three great lords called Alakuke, Herawd, and Heringdale. During the campaign three notorious giants were accounted for --two of them by Arthur himself. Finally, in the last engagement, Arthur gave the Emperor Lucius such a blow on the head that Excalibur stinted not till it came to his breast, and it was discovered that the Sowdan of Surrie and the King of Egypt and the King of Ethiope --an ancestor of Haile Selassie --together with seventeen other kings of diverse regions and sixty senators of Rome, were among the slain. Arthur put their bodies into sumptuous coffins --not sarcastically --and sent them to the Lord Mayor of Rome, instead of the tribute which had been demanded. This induced the Lord Mayor and nearly the whole of Europe to accept him as overlord. The lands of Pleasance, Pavia, Petersaint, and the Port of Tremble yielded him homage. The feudal convention of battle was broken for good, on the Continent as well as in England.", 
            "type": "passage", 
            "score": 0
        }, 
        {
            "paragraph": "While the damsel is weeping, which she did in a charming and determined way, we had better explain about the tournaments which used to take place in Gramarye in the early days. A real tournament was distinct from a joust. In a joust the knights tilted or fenced with each other singly, for a prize. But a tournament was more like a free fight. A body of knights would pick sides, so that there were twenty or thirty on either side, and then they would rush together harum-scarum. These mass battles were considered to be important --for instance, once you had paid your green fee for the tournament, you were admitted on the same ticket to fight in the jousts --but if you had only paid the jousting fee, you were not allowed to fight in the tourney. People were liable to be dangerously injured in the melees. They were not bad things altogether, provided they were properly controlled. Unfortunately, in the early days, they were seldom controlled at all.", 
            "type": "passage", 
            "score": 0
        }, 
        {
            "paragraph": "Lancelot, who had been woken from his love sleep with a start, moved suddenly in the bed when he felt the man. The man, equally surprised at feeling a movement, jumped up and snatched his sword. Lancelot jumped out on the other side of the bed and ran for his own arms, where they were hanging in the tree. The man came after him, waving his blade and trying to get a cut at him from behind. Lancelot reached the tree in safety and swung round with his weapon in his hand. They looked strange and terrible in the moonlight, both stark naked, with their silver steel glancing under the harvest moon.", 
            "type": "passage", 
            "score": 0
        }, 
        {
            "paragraph": "They fought for two more hours. The blade was not the only weapon used by knights in armour. Sometimes they struck each other with the edges of their shields, sometimes they clubbed each other with the pommels of their swords. The grass all round was speckled with their blood --little spots like those on trout, but with a kind of tail on each spot, like a tadpole. Sometimes, because of their weight, they fell over each other. The heavy, straw-stuffed helms of chivalry had such small holes to breathe through that they felt like suffocating. Their shields hung wearily, not covering them properly.", 
            "type": "passage", 
            "score": 0
        }, 
        {
            "paragraph": "8 Lancelot had several other adventures during his first quest --it lasted a year --but perhaps only two are worth repeating in detail. They were both mixed up with the conservative ethics of Force Majeur against which the King had started his crusade. It was the old school, the Norman baronial attitude, which provided the adventures at this period --for few people can hate so bitterly and so self-righteously as the members of a ruling caste which is being dispossessed. The knights of the Round Table were sent out as a measure against Fort Mayne, and the choleric barons who lived by Fort Mayne took up the cudgels with the ferocity of despair. They would have written to The Times about it, if there had been such a paper. The best of them convinced thelmselves that Arthur was newfangled, and that his knights were degenerate from the standards of their fathers. The worst of them made up uglier names than Bolshevist even, and allowed the brutal side of their natures to dwell on imaginary enormities which they attributed to the knights. The situation became divorced from common sense, so that atrocity stories were accepted by the atrocious people. Many of the barons whom Lancelot had to put down had worked thelmselves into such a state about him, through fear of losing their ancient powers, that they believed him to be a sort of poison-gas man. They fought him with as much unscrupulousness and hatred as if he had been an antichrist, and they truly believed thelmselves to be defending the right It became a civil war of ideologies.", 
            "type": "passage", 
            "score": 0
        }, 
        {
            "paragraph": "One reason for his dilemma was that he was a Christian. The modern world is apt to forget that several people were Christians in the remote past, and in Lancelot's time there were no Protestants --except John Scotus Erigena. His Church, in which he had been brought up --and it is difficult to escape from your upbringing --directly forbade him to seduce his best friend's wife. Another stumbling block to doing as he pleased was the very idea of chivalry or of civilization which Arthur had first invented and then introduced into his own young mind. Perhaps a bad baron who believed in the Strong Arm might have gone off with Guenever, even in the face of his Church's councils, because taking your neighbour's wife was really a form of Fort Mayne. It was a matter of the stronger bull winning.", 
            "type": "passage", 
            "score": 0
        }, 
        {
            "paragraph": "But Lancelot had spent his childhood between knightly exercises and thinking out King Arthur's theory for himself. He believed as firmly as Arthur did, as firmly as the benighted Christian, that there was such a thing as Right. Finally, there was the impediment of his nature. In the secret parts of his peculiar brain, those unhappy and inextricable tangles which he felt at the roots, the boy was disabled by something which we can not explain. He could not have explained either, and for us it is all too long ago. He loved Arthur and he loved Guenever and he hated himself. The best knight of the world: everybody envied the self-esteem which must surely be his. But Lancelot never believed he was good or nice. Under the grotesque, magnificent shell with a face like Quasimodo's, there was shame and self-loathing which had been planted there when he was tiny, by something which it is now too late to trace. It is so fatally easy to make young children believe that they are horrible.", 
            "type": "passage", 
            "score": 0
        }, 
        {
            "paragraph": "11 Lancelot stayed at the court for several weeks this time, and each week made it more difficult to go away. On top of the more or less social tangle in which he found himself, there was a personal puzzle --for he put a higher value on chastity than is fashionable in our century. He believed, like the man in Lord Tennyson, that people could only have the strength of ten on account of their hearts being pure. It so happened that his strength was as the strength of ten, and such was the medieval explanation which had been discovered for it. As a corollary to this belief, he supposed that if he gave in to the Queen he would lose his tenfold might. So, for this reason, as well as for the other ones, he fought against her with the courage of despair. It was not pleasant for Guenever either.", 
            "type": "passage", 
            "score": 0
        }, 
        {
            "paragraph": "The second quest which he embarked upon was the turning-point of his life. There had been a good deal of talk in Camelot about a certain King Pelles, who was lame and lived in the haunted castle of Corbin. He was supposed to be slightly mad, because he believed himself to be a relation of Joseph of Arimathea. He was the sort of man who would become a British Israelite nowadays, and spend the rest of his life prophesying the end of the world by measuring the passages in the Great Pyramid. However, King Pelles was only slightly mad, and his castle was certainly haunted. It had a haunted room in it, with innumerable doors out of which things came and fought you in the night. Arthur thought it was worth sending Lancelot to investigate the place.", 
            "type": "passage", 
            "score": 0
        }, 
        {
            "paragraph": "Lancelot, while Elaine was planning his capture, remained with the Queen at court. But he now remained without the temporary peace of heart which he had been able to invent for himself while the King was away. In the King's absence he had been able to drown himself in the passing minute --but Arthur was perpetually at his elbow now, as a comment on his treachery. He had not buried his love for Arthur in his passion for Guenever, but still felt for him. To a medieval nature like Lancelot's, with its fatal weakness for loving the highest when he saw it, this was a position of pain. He could not bear to be made to feel that his sentiment for Guenever was an ignoble sentiment, for it was the profound feeling of his life --yet every circumstance now conspired to make it seem ignoble. The hasty moments together, the locked doors and base contrivances, the guilty manoarvres which the husband's presence forced on the lovers --these had the effect of soiling what had no excuse unless it was beautiful. On top of this stain there was the torture of knowing that Arthur was kind, simple and upright --of knowing that he was always on the edge of hurting Arthur dreadfully, although he loved him. Then there was pain about Guenever herself, the tiny plant of bitterness which they had sown, or seen sown, in each other's eyes, on the occasion of their first quarrel of suspicion. It was a pain to him to be in love with a jealous and suspicious woman. She had given him a mortal blow by not believing his explanation about Elaine instantly. Yet he was unable not to love her. Finally there were the revolted elements of his own character --his strange desire for purity and honour and spiritual excellence. All these things, working together with the unconscious dread of Elaine's arrival with his son, broke his happiness without allowing him to escape. He seldom sat down, but strayed about with nervous movements, picking things up and setting them down without looking at them, walking to windows and looking out but seeing nothing.", 
            "type": "passage", 
            "score": 0
        }, 
        {
            "paragraph": "For Guenever the dread of Elaine's arrival was not unconscious. She had known from the first moment that Elaine was bound to come. For her, however, as for all women, the dreads were in advance of the male horizon. Men often accuse women of driving them to unfaithfulness by senseless jealousy, before there has been any thought of unfaithfulness on their own part. Yet the thought was probably there, unconscious and undetectable except to women. The great Anna Karenina, for instance, forced Vronsky into a certain position by the causeless jealousy of a maniac --yet that position was the only real solution to their problem, and it was the inevitable solution. Seeing so much further into the future than he did, she pressed towards it with passionate tread, wrecking the present because the future was bound to be a wreck.", 
            "type": "passage", 
            "score": 0
        }, 
        {
            "paragraph": "Lancelot was stretched out in his knightly gown. Sir Bliant, in remarking that gentlemanly things seemed to stir something in his head, had noticed truly. Moved by the gown, by some strange memory of miniver and colour, the poor Wild Man had gone from the King's table to the well. There, alone in the darkness, without a mirror, he had washed his face. He had swilled out his eye sockets with bony knuckles. With a currycomb and a pair\" of shears from the stables he had tried to arrange his hair.", 
            "type": "passage", 
            "score": 0
        }, 
        {
            "paragraph": "Lancelot looked uncomfortable. He had an instinctive dislike for Mordred, and did not like having it. He did not know about Arthur being Mordred's father --for that was a story which had been hushed up in the earliest days, before either he or Guenever came to court, just as Arthur's own birth had been. But he did feel that there was something strange between the young man and the King. He disliked Mordred irrationally, as a dog dislikes a cat --and he felt ashamed of the dislike, because it was a confused principle of his to help the younger Knights.", 
            "type": "passage", 
            "score": 0
        }, 
        {
            "paragraph": "I mean, if we were to go on a Crusade, we should still be using force: we should be putting the Might into a channel against the infidels. But if we really and truly banded the whole Table together to search for something which belonged to God himself, why, that would be infinitely worth doing --and, although we should be busy, there might be no need for fighting at all. If it comes to that, we needn't necessarily look for one thing alone. Why, if all our knights --one hundred and fifty men, all specialists in questing, like detectives --if all our knights were to turn their energies to the quest for things which belonged to God --why, we might find hundreds and hundreds of things which would be of huge value. The Round Table might have been positively invented and trained just for that object. We might find some new gospels, even. The whole of Christianity might be helped by what we did. Think of a hundred and fifty men all trained for the search! And it is not too late to try. The True Cross was found in 326, but the Holy Shroud was not discovered at Lirey until 1360! We might find the spear which killed Our Lord!\"", 
            "type": "passage", 
            "score": 0
        }, 
        {
            "paragraph": "Lancelot came back out of a rainstorm, wet and small. He was leading an old barrel of a white mare, without a trot left in her. The black autumn clouds were behind them, and her hollow ribs stood out like flake-white against their indigo. A magic, a mind-reading, an intuition must have taken place --for all the palace battlements and turrets, and the drawbridge of the Great Gate, were thronged with people waiting, and watching, and pointing in silence, before ever he appeared. When the tiny figure could be seen, threading wearily through the far trees of the chase, a murmuration went up among the people. It was Lancelot in a scarlet gown beside the white. He was safe. Everything was known about all his adventures, before anything had been spoken. Arthur ran about like a madman, telling everybody to go in, to leave the battlements, to give the man a chance. By the time the figure arrived, there was nobody to hurt him. Only, the Great Gate stood open and Uncle Dap was there, bent and wMte-headed, to receive his horse.", 
            "type": "passage", 
            "score": 0
        }, 
        {
            "paragraph": "When Lancelot saw her waiting for him at the table, with Arthur beside her, the heart-sack broke in his wame, and the love inside it ran about his veins. It was his old love for a girl of twenty, standing proudly by her throne with the present of captives about her --but now the same girl was standing in other surroundings, the surroundings of bad make-up and loud silks, by which she was trying to defy the invincible doom of human destiny. He saw her as the passionate spirit of innocent youth, now beleaguered by the trick which is played on youth --the trick of treachery in the body, which turns flesh into green bones. Her stupid finery was not vulgar to him, but touching. The girl was still there, still appealing from behind the breaking barricade of rouge. She had made the brave protest: I will not be vanquished. Under the clumsy coquetry, the undignified clothes, there was the human cry for help. The young eyes were puzzled, saying: It is I, inside here --what have they done to me? I will not submit. Some part of her spirit knew that the powder was making a guy of her, and hated it, and tried to hold her lover with the eyes alone. They said: Don't look at all this. Look at me. I am still here, in the eyes. Look at me, here in the prison, and help me out. Another part said: I am not old, it is illusion. I am beautifully made-up. See, I will perform the movements of youth. I will defy the enormous army of age.", 
            "type": "passage", 
            "score": 0
        }, 
        {
            "paragraph": "\"It was black as death behind the castle. I put on my armour and went up. There were two lions at the entry of the stairs, who tried to bar my way. I drew my sword to fight them, but a hand struck me on the arm. It was silly of me, of course, to trust in my sword, when I could have trusted in God. So I blessed myself with my numb arm and went in, and the lions didn't hurt me. All the doors were open except the last one, and there I kneeled down. When I prayed, it opened.", 
            "type": "passage", 
            "score": 0.0
        }, 
        {
            "paragraph": "Lancelot, who did not know that he was to betray his much-loved God again for the sake of the Queen, was made happy by her attitude --though it surprised him. He had feared some terrible scene of jealousy or recrimination. He had wondered how he would be able to explain to the tortured child, imprisoned in the painted eyes, that he could not come to her --that he had a sweeter necessity, however much her pain. He had been afraid that she would attack him, would lay her poor snares before him --snares which would be all the more pitifully beguiling because of their poverty. He had really not known how he was to face the pity.", 
            "type": "passage", 
            "score": 0
        }, 
        {
            "paragraph": "Lancelot had said, apologizing and begging her not to think him offensive, (1) that they could not very well go back to the old way, after the Grail; (2) that, had it not been for their guilty love, he might have been allowed to achieve the Grail; (3) that it would be dangerous in any case, because the Orkney faction was beginning to watch them unpleasantly, particularly Agravaine and Mordred; and (4) that it would be a great shame to thelmselves and also to Arthur. He numbered the points carefully.", 
            "type": "passage", 
            "score": 0
        }, 
        {
            "paragraph": "The importance of the Winchester tournament did not lie in any particular feat of arms, nor even in Lancelot's grievous hurt --for he eventually recovered from it. Where it did touch the lives of our four friends was in a circumstance which remains to be told. For Lancelot, suddenly faced with the unlucky Elaine's unfounded conviction that he was going to stay with her for ever, had faltered in telling her the truth. Perhaps he was a weak man in most ways --weak to have taken Guenever from his best friend in the first place, weak to have tried to exchange his mistress for his God, and weakest of all to have helped Elaine by telling her he would come back. Now, in the face of the poor lady's simple hope, he had lacked the courage to break her illusion with an immediate blow.", 
            "type": "passage", 
            "score": 0
        }, 
        {
            "paragraph": "One of the troubles in dealing with Elaine, in spite of her simplicity or ignorance, was that her nature was a sensitive one --more sensitive than Guenever's, in fact, although she lacked the power of that bold and extraverted queen. She had been sensitive enough not to overwhelm him with welcomes when he came home from his long absence: not to reproach him --she had never felt that she had reason to reproach him: and, above all, not to suffocate him with pity for herself. She had held her heart with a firm hand while they waited at Corbin for the tournament, carefully hiding the long years during which she had hoped for her lord, and her absolute loneliness now that their son was gone. Lancelot had known quite well what she was hiding. Uncertain and sensitive himself, he had forgotten about the way in which their peculiar relationship had started. He had begun to blame himself exclusively for Elaine's sorrows.", 
            "type": "passage", 
            "score": 0
        }, 
        {
            "paragraph": "There was great silence in the arena, while everybody waited without breath, leaning forward and looking upon the combatants like a circle of vultures whose prey is not yet dead. Everybody was waiting for the coup de grace, like the people at a Roman amphitheatre or at a Spanish bull-fight, and everybody was sure that Lancelot would give it. The accusation of Meliagrance had been, in their opinion, much more serious than the accusation of Mador --and they thought, like Guenever, that he deserved to perish. For in those days love was ruled by a different convention to ours. In those days it was chivalrous, adult, long, religious, almost platonic. It was not a matter about which you could make accusations lightly. It was not, as we take it to be nowadays, begun and ended in a long week-end.", 
            "type": "passage", 
            "score": 0
        }, 
        {
            "paragraph": "This is the end of the book of Sir Lancelot, and now we are to see him for the last time in it. He was hiding in the harness-room of the castle, whence he could spy the field. There were plenty of leather reins in the room, hanging orderly among the saddles and the bright bits. He had noticed that they were strong enough to bear his weight. He was waiting there, hidden, praying that somebody --Gareth perhaps? --would be able to do the miracle quickly: or, if not, that they would overlook him, that his absence would not be noticed.", 
            "type": "passage", 
            "score": 0
        }
    ], 
    "character": "lancelot"
}
