[
    {
        "paragraph": "\"Perhaps,\" said the Wart to himself, \"even if Hob does not come, and I do not see how he can very well follow me in this trackless woodland now, I shall be able to climb up by myself at about midnight, and bring Cully down. He might stay there at about midnight because he ought to be asleep by then. I could speak to him softly by name, so that he thought it was just the usual person coming to take him up while hooded. I shall have to climb very quietly. Then, if I do get him, I shall have to find my way home, and the drawbridge will be up. But perhaps somebody will wait for me, for Kay will have told them I am out I wonder which way it was? I wish Kay had not gone.\"", 
        "type": "quote", 
        "score": -10
    }, 
    {
        "paragraph": "\"I think the way was behind that big spruce with the spike top. I ought to try to remember which side of me the sun is setting, so that when it rises I may keep it on the same side going home. Did something move under that spruce tree, I wonder? Oh, I wish I may not meet that old wild Wat and have my nose bitten off! How aggravating Cully looks, standing there on one leg as if there was nothing the matter.\"", 
        "type": "quote", 
        "score": -10
    }, 
    {
        "paragraph": "\"Oh,\" thought he, \"now I am truly lost, and now there is almost no alternative except to have my nose bitten off, or to be pierced right through with one of those waspy arrows, or to be eaten by a hissing dragon or a wolf or a wild boar or a magician --if magicians do eat boys, which I expect they do. Now I may well wish that I had been good, and not angered the governess when she got muddled with her astrolabe, and had loved my dear guardian Sir Ector as much as he deserved.\"", 
        "type": "quote", 
        "score": -10
    }, 
    {
        "paragraph": "The Wart found the spectacles, wiped them, and gave them to the ghost, who immediately put them on (the visor shut at once) and began scrambling back on its horse for dear life. When it was there it held out its hand for the lance, which the Wart handed up, and, feeling all secure, opened the visor with its left hand, and held it open. It peered at the boy with one hand up --like a lost mariner searching for land --and exclaimed, \"Ah-hah! Whom have we here, what?\"", 
        "type": "quote", 
        "score": -10
    }, 
    {
        "paragraph": "\"A feather bed of one's very own, with sheets and a pillow --perhaps even two pillows, or a pillow and a bolster --and no need to get up in time for breakfast! Does your guardian get up in time for breakfast?\"", 
        "type": "quote", 
        "score": -10
    }, 
    {
        "paragraph": "\"We see so little company,\" explained the magician, wiping his head with half a worn-out pair of pyjamas which he kept for that purpose, \"that Archimedes is a little shy of strangers. Come, Archimedes, I want you to meet a friend of mine called Wart.\"", 
        "type": "quote", 
        "score": -10
    }, 
    {
        "paragraph": "\"Ah, yes. How did I know to set breakfast for two? That was why I showed you the looking-glass. Now ordinary people are born forwards in Time, if you understand what I mean, and nearly everything in the world goes forward too. This makes it quite easy for the ordinary people to live, just as it would be easy to join those five dots into a W if you were allowed to look at them forwards, instead of backwards and inside out. But I unfortunately was born at the wrong end of time, and I have to live backwards from in front, while surrounded by a lot of people living forwards from behind. Some people call it having second sight.\"", 
        "type": "quote", 
        "score": -10
    }, 
    {
        "paragraph": "The Wart did not quite see, but was just going to say that he was sorry for Merlyn if these things made him unhappy, when he felt a curious sensation at his ear. \"Don't jump,\" said the old man, just as he was going to do so, and the Wart sat still. Archimedes, who had been standing forgotten on his shoulder all this time, was gently touching himself against him. His beak was right against the lobe of the ear, which its bristles made to tickle, and suddenly a soft hoarse voice whispered, \"How d'you do,\" so that it sounded right inside his head.", 
        "type": "quote", 
        "score": -10
    }, 
    {
        "paragraph": "4 The Wart started talking before he was half-way over the drawbridge. \"Look who I have brought,\" he said. \"Look! I have been on a Quest! I was shot at with three arrows. They had black and yellow stripes. The owl is called Archimedes. I saw King Pellinore. This is my tutor, Merlyn. I went on a Quest for him. He was after the Questing Beast. I mean King Pellinore. It was terrible in the forest. Merlyn made the plates wash up. Hallo, Hob. Look, we have got Cully.\"", 
        "type": "quote", 
        "score": -10
    }, 
    {
        "paragraph": "\"Merlyn caught him,\" said the Wart. \"He sent Archimedes to look for him on the way home. Then Archimedes told us that he had been and killed a pigeon and was eating it. We went and frightened him off. After that, Merlyn stuck six of the tail feathers round the pigeon in a circle, and made a loop in a long piece of string to go round the feathers. He tied one end to a stick in the ground, and we went away behind a bush with the other end. He said he would not use magic. He said you could not use magic in Great Arts, just as it would be unfair to make a great statue by magic. You have to cut it out with a chisel, you see. Then Cully came down to finish the pigeon, and we pulled the string, and the loop slipped over tie feathers and caught him round the legs. He was angry! But we gave him the pigeon.\"", 
        "type": "quote", 
        "score": -10
    }, 
    {
        "paragraph": "\"Oh, sir,\" said the Wart, \"I have been on that quest you said for a tutor, and I have found him. Please, he is this gentleman here, and he is called Merlyn. He has got some badgers and hedgehogs and mice and ants and things on this white donkey here, because we could not leave them behind to starve. He is a great magician, and can make things come out of the air.\"", 
        "type": "quote", 
        "score": -10
    }, 
    {
        "paragraph": "\"The trouble with you is that you do not swim from the shoulder. You swim as if you were a boy, bending at the hips. Try doing your jack-knives right from the neck downward, and move your body exactly the same amount to the right as you are going to move it to the left. Put your back into it.\"", 
        "type": "quote", 
        "score": -10
    }, 
    {
        "paragraph": "\"Now I think it is time that you should go away, young master, for I find this conversation uninteresting and exhausting. I think you ought to go away really almost at once, in case my disillusioned mouth should suddenly determine to introduce you to my great gills, which have teeth in them also. Yes, I really think you might be wise to go away this moment. Indeed, I think you ought to put your back into it. And so, a long farewell to all my greatness.\"", 
        "type": "quote", 
        "score": -10
    }, 
    {
        "paragraph": "\"I shall not be a knight,\" replied the Wart coldly. Merlyn's trick had worked and he no longer wanted to weep: he wanted to kick Merlyn. \"I shall not be a knight because I am not a proper son of Sir Ector's. They will knight Kay, and I shall be his squire.\"", 
        "type": "quote", 
        "score": -10
    }, 
    {
        "paragraph": "\"You will not need to fly. I don't mean to turn you into a loose hawk, but only to set you in the mews for the night, so that you can talk to the others. That is the way to learn, by listening to the experts.\"", 
        "type": "quote", 
        "score": -10
    }, 
    {
        "paragraph": "\"Another subject they have,\" he continued, \"is food. It is a depressing thought, but of course they are mainly trained by hunger. They are a hungry lot, poor chaps, thinking of the best restaurants where they used to go, and how they had champagne and caviare and gypsy music. Of course, they all come of noble blood.\"", 
        "type": "quote", 
        "score": -10
    }, 
    {
        "paragraph": "The old nurse immediately folded him to her broad bosom, patted him on the back, and said, \"There, there, my dowsabel. It's the same story Sir Ector told me when I caught him with a blue eye, gone forty years. Nothing like a good family for sticking to a good lie. There, my innocent, you come along of me to the kitchen and we'll slap a nice bit of steak across him in no time. But you hadn't ought to fight with people bigger than yourself.\"", 
        "type": "quote", 
        "score": -10
    }, 
    {
        "paragraph": "\"It is all right,\" said the Wart again, disgusted by the fuss, but fate was bent on punishing him, and the old lady was inexorable. It took him half an hour to escape, and then only at the price of carrying with him a juicy piece of raw beef which he was supposed to hold over his eye.", 
        "type": "quote", 
        "score": -10
    }, 
    {
        "paragraph": "Merlyn immediately struck himself on the brow and exclaimed excitedly, \"Now I see it all. Yes, of course there is, and you are going to see it. Yes, you must take Kay and hurry up about it. You must go immediately after Mass. Have breakfast first and go immediately after Mass. Yes, that is it. Go straight to Hob's strip of barley in the open field and follow that line until you come to something. That will be splendid, yes, and I shall have a nap this afternoon instead of those filthy Summulae Logicales. Or have I had the nap?\"", 
        "type": "quote", 
        "score": -10
    }, 
    {
        "paragraph": "\"Ah, don't plague me about a little thing like that. You run along now, there's a good boy, and mind you don't forget to take Kay with you. Why ever didn't you mention it before? Don't forget to follow beyond the strip of barley. Well, well, well! This is the first half-holiday I have had since I started this confounded tutorship. First I think I shall have a little nap before luncheon, and then I think I shall have a little nap before tea. Then I shall have to think of something I can do before dinner. What shall I do before dinner, Archimedes?\"", 
        "type": "quote", 
        "score": -10
    }, 
    {
        "paragraph": "\"It certainly is an adventure,\" said the Wart. \"I wonder if that dumb woodman could have climbed up the big tree he was leaning against and sent a message to this tree that we were coming? He certainly seems to have been expecting us.\"", 
        "type": "quote", 
        "score": -10
    }, 
    {
        "paragraph": "\"Naylor,\" said the giant, \"John Naylor in the wide world it were, till us come to be a man of the'ood. Then'twere John Little for some time, in the'ood like, but mostly folk does put it back'ard now, and calls us Little John.\"", 
        "type": "quote", 
        "score": -10
    }, 
    {
        "paragraph": "\"Very well,\" he said. \"We won't make a fuss about it, but we will talk about plans. I think it is good of you two to go, without really knowing what you are in for, but it will not be so bad as you think.\"", 
        "type": "quote", 
        "score": -10
    }, 
    {
        "paragraph": "\"Indeed there is. The Castle Chariot is guarded by a fierce one, like a watch dog. We shall have to get past it on the way there, or it will give the alarm and you won't be able to get in. It will be a terrific stalk.\"", 
        "type": "quote", 
        "score": -10
    }, 
    {
        "paragraph": "Wart did not sleep much. He sat propped against a tree, watching the red sentries passing to and fro in the firelight, hearing their quiet passwords and thinking about the excitements of the day. These went round and round in his head, sometimes losing their proper order and happening backwards or by bits. He saw the leaping dragon, heard Marian shouting \"Good shot!\", listened to the humming of the bees muddled up with the stridulation of the grasshoppers, and shot and shot, hundreds and thousands of times, at popinjays which turned into griffins. Kay and the liberated Dog Boy slept twitching beside him, looking alien and incomprehensible as people do when they are asleep, and Cavall, lying at his good shoulder, occasionally licked his hot cheeks. The dawn came slowly, so slowly and pausingly that it was impossible to determine when it really had dawned, as it does during the summer months.", 
        "type": "quote", 
        "score": -10
    }, 
    {
        "paragraph": "\"Oh Ark!\" one of them would say. \"Ear comes that Mammy --mammy --mammy --mammy song again. I dew think that Mammy --mammy --mammy --mammy song is loverly (done). It is so high-class (done).\"", 
        "type": "quote", 
        "score": -10
    }, 
    {
        "paragraph": "\"Another thing I like about them,\" said the Wart, \"is their Go. They may be thieves and practical jokers, and they do quarrel and bully each other in a squawky way, but they have got the courage to mob their enemies. I should think it takes sdme courage to mob a hawk, even if there is a pack of you. And even while they are doing it they clown.\"", 
        "type": "quote", 
        "score": -10
    }, 
    {
        "paragraph": "\"I know our tame pigeons do,\" said the Wart. \"I suppose the reason why people are always trying to kill them is because they are so greedy. What I like about wood-pigeons is the clap of their wings, and how they soar up and close their wings and sink, during their courting flights, so that they fly rather like woodpeckers.\"", 
        "type": "quote", 
        "score": -10
    }, 
    {
        "paragraph": "Wart jumped for the sill and automatically gave himself an extra kick with his wings, just as a high jumper swings his arms. He landed on the sill with a thump, as owls are apt to do, did not stop himself in time, and toppled straight out of the window. \"This,\" he thought to himself, cheerfully, \"is where I break my neck.\" It was curious, but he was not taking life seriously. He felt the castle walls streaking past him, and the ground and the moat swimming up. He kicked with his wings, and the ground sank again, like water in a leaking well. In a second that kick of his wings had lost its effect, and the ground was welling up. He kicked again. It was strange, going forward with the earth ebbing and flowing beneath him, in the utter silence of his down-fringed feathers.", 
        "type": "quote", 
        "score": -10
    }, 
    {
        "paragraph": "\"This,\" she said, \"is how an admiral is elected. Perhaps Wink-wink will come to our famiiy in the autumn, and he will say: \"Excuse me, but have you by any chance got a reliable pilot in your lot? Poor old grand-dad died at cloudberry time, and Uncle Onk is inefficient. We were looking for somebody to follow.\" Then we will say: \"Great-uncle will be delighted if you care to hitch up with us; but mind, we can not take responsibility if things go wrong.\"\" Thank you very much,\" he will say. \"I am sure your great-uncle can be relied on. Do you mind if I mention this matter to the Honks, who are, I happen to know, in the same difficulty?\"\" Not at all.\"", 
        "type": "quote", 
        "score": -10
    }, 
    {
        "paragraph": "Wart sat in the enormous firelight and looked about him with pleasure. He looked upon the long spits which he had often turned when he was smaller, sitting behind an old straw target soaked in water, so that he would not be roasted himself, and upon the ladles and spoons whose handles could be measured in yards, with which he had been accustomed to baste the meat. He watched with water in his mouth the arrangements for the evening meal --a boar's head with a lemon in its jaws and split almond whiskers, which would be served with a fanfare of trumpets --a kind of pork pie with sour apple juice, peppered custard, and several birds' legs, or spiced leaves sticking out of the top to show what was in it --and a most luscious-looking frumenty. He said to himself with a sigh, \"It is not so bad being a servant after all.\"", 
        "type": "quote", 
        "score": -10
    }, 
    {
        "paragraph": "\"Oh, no,\" said the Wart. \"Or rather, oh yes, and for the same reason. But I don't really mind. I am sure I shall make a better squire than old Kay would. Look at the saffron going into that frumenty. It just matches the fire-light on the hams in the chimney.\"", 
        "type": "quote", 
        "score": -10
    }, 
    {
        "paragraph": "\"If I were to be made a knight,\" said the Wart, staring dreamily into the fire, \"I should insist on doing my vigil by myself, as Hob does with his hawks, and I should pray to God to let me encounter all the evil in the world in my own person, so that if I conquered there would be none left, and, if I were defeated, I would be the one to suffer for it.\"", 
        "type": "quote", 
        "score": -10
    }, 
    {
        "paragraph": "\"By the way,\" added the magician, stopping in the middle of his spell, \"there is one thing I ought to tell you. This is the last time I shall be able to turn you into anything. All the magic for that sort of thing has been used up, and this will be the end of your education. When Kay has been knighted my labours will be over. You will have to go away then, to be his squire in the wide world, and I shall go elsewhere. Do you think you have learned anything?\"", 
        "type": "quote", 
        "score": -10
    }, 
    {
        "paragraph": "\"Was he called Merlyn?\" asked the Wart curiously. \"Ah, that wor is neame. A proper fine neame it wor, but us never lay tongue to it by nary means. Ah, Mearn ee called to iself, and fed un out a porcelain, like a proper fine gennelman.\"", 
        "type": "quote", 
        "score": -10
    }, 
    {
        "paragraph": "\"Oh, do uncurl,\" exclaimed the Wart. \"I know the man who kept you, and I think I saw you, yourself, when you were a baby in cotton wool at his cottage. Come on, urchin, I am sorry I frightened you. We are friends here, and I want to see your little grey wet twitching nose, just for old time's sake.\"", 
        "type": "quote", 
        "score": -10
    }, 
    {
        "paragraph": "\"You need not uncurl,\" said the Wart resignedly. \"I am sorry I woke you up, chap, and I am sorry I frightened you. I think you are a charming hedgehog, and meeting you has made me feel more cheerful again. You just go off to sleep like you were when I met you, and I shall go to look for my friend badger, as I was told to do. Good night, urchin, and good luck in the snow.\"", 
        "type": "quote", 
        "score": -10
    }, 
    {
        "paragraph": "\"Well,\" thought the Wart, \"he certainly gets over his troubles pretty quickly. Fancy going to sleep again as quick as that. I dare say he was never more than half-awake all the time, and will think it was only a dream when he gets up properly in the spring.\"", 
        "type": "quote", 
        "score": -10
    }, 
    {
        "paragraph": "\"What enormous arms you have,\" remarked the Wart, watching him stir the spirits with a spoon. \"So have I, for that matter.\" And he looked down at his own bandylegged muscles. He was mainly a tight chest holding together a pair of forearms, mighty as thighs.", 
        "type": "quote", 
        "score": -10
    }, 
    {
        "paragraph": "\"Thank you very much,\" said the Wart. \"It will be good for you, dear boy. It is just the thing to top off an education. Study birds and fish and animals: then finish off with Man. How fortunate that you came! Now where the devil did I put that manuscript?\"", 
        "type": "quote", 
        "score": -10
    }, 
    {
        "paragraph": "\"All the same, if even Sir Ector was to go for a walk beside a river, not only would the birds fly from him and the beasts run away from him, but the very fish would dart to the other side. They don't do this for each other.\"", 
        "type": "quote", 
        "score": -10
    }, 
    {
        "paragraph": "\"Don't say'Ants do' in that sweeping way, dear boy. There are more than four thousand different sorts of them, and from all those kinds I can only think of five which are belligerent. There are the five ants, one termite that I know of, and Man.\"", 
        "type": "quote", 
        "score": -10
    }, 
    {
        "paragraph": "\"Wolves and sheep belong to different species, my friend. True warfare is what happens between bands of the same species. Out of the hundreds of thousands of species, I can only think of seven which are belligerent. Even Man has a few varieties like the Esquimaux and the Gypsies and the Lapps and certain Nomads in Arabia, who do not do it, because they do not claim boundaries. True warfare is rarer in Nature than cannibalism. Don't you think that is a little unfortunate?\"", 
        "type": "quote", 
        "score": -10
    }, 
    {
        "paragraph": "\"Personally,\" said the Wart, \"I should have liked to go to war, if I could have been made a knight. I should have liked the banners and the trumpets, the flashing armour and the glorious charges. And oh, I should have liked to do great deeds, and be brave, and conquer my own fears. Don't you have courage in warfare, Badger, and endurance, and comrades whom you love?\"", 
        "type": "quote", 
        "score": -10
    }, 
    {
        "paragraph": "The Wart went as pale as Sir Kay was, and looked as if he were going to strike him. Then he said, \"It shall be done, master,\" and turned his ambling palfrey against the stream of newcomers. He began to push his way toward their hostelry as best he might.", 
        "type": "quote", 
        "score": -10
    }, 
    {
        "paragraph": "\"To offer me money!\" cried the Wart to himself. \"To look down at this beastly little donkey-affair off his great charger and to call me Squire! Oh, Merlyn, \"give me patience with the brute, and stop me from throwing his filthy shilling in his face.\"", 
        "type": "quote", 
        "score": -10
    }, 
    {
        "paragraph": "\"How does one get hold of a sword?\" he continued. \"Where can I steal one? Could I waylay some knight even if I am mounted on an ambling pad, and take his weapons by force? There must be some swordsmith or armourer in a great town like this, whose shop would be still open.\"", 
        "type": "quote", 
        "score": -10
    }, 
    {
        "paragraph": "\"This is extraordinary,\" said the Wart. \"I feel strange when I have hold of this sword, and I notice everything much more clearly. Look at the beautiful gargoyles of the church, and of the monastery which it belongs to. See how splendidly all the famous banners in the aisle are waving. How nobly that yew holds up the red flakes of its timbers to worship God. How clean the snow is. I can smell something like fetherfew and sweet briar --and is it music that I hear?\"", 
        "type": "quote", 
        "score": -10
    }
]